﻿申請日,專利名稱,摘要
2023-01-03,Method of avoiding collision of unmanned aerial vehicle,"Provided is a method of avoiding collision of an unmanned aerial vehicle with an obstacle, the method including: calculating two potential fields using ament positional information of the unmanned aerial vehicle, a target point that is set, and positional information of the obstacle measured by a sensor, computing an attractive force and a repulsive force by differentiating the computed potential fields, respectively; computing a direction of a potential force that results from adding up the computed attractive force and repulsive force; and performing control that brings about a change from the computed direction of the potential force to a direction in which the unmanned aerial vehicle moves."
2023-01-03,"Aerial launch and/or recovery for unmanned aircraft, and associated systems and methods","Aerial launch and/or recovery for unmanned aircraft, and associated systems and methods are described. A representative system includes a first, carrier aircraft having an airframe, a propulsion system carried by the airframe and positioned to support the carrier aircraft in hover, and a capture line carried by the carrier aircraft and deployable to hang from the carrier aircraft. The capture line is sized to releasably engage with a capture device of a second, carried aircraft. The system further includes a retrieval device positioned to support the carried aircraft for detachment from the capture line."
2023-01-03,"Unmanned aerial vehicle action plan creation system, method and program","Provided are an action plan making system and method for an unmanned aerial vehicle, and a storage medium. The action plan making system (1) includes: an unmanned aerial vehicle (10), provided with an aerial shooting device; and a computer (30). A control unit of the computer (30) executes a making module (324), which makes an action plan including a flight plan and a shooting plan of the unmanned aerial vehicle (10) according to a region accepted by executing a region acceptance module (322) and a purpose accepted by executing a purpose acceptance module (323). A control unit (14) of the unmanned aerial vehicle (10) executes a control module (141), and controls the aerial shooting of a camera (17) and flying of the unmanned aerial vehicle (10) based on the action plan made by executing the making module (324) by the control unit (32) of the computer (30)."
2023-01-03,Unmanned aerial vehicle and control systems and methods,"Systems and methods for an unmanned aerial vehicle (UAV) and control are provided. A UAV may include a swashplateless and hinged propulsion system, and a rotating payload system including an ISR device, a wind sensor, explosive charge and an atmospherics and/or CBRN sensor. A UAV flight controller may include a motion, compass, visual and gyroscopic (MCVG) or other gravitational forces sensor, a communications module configured to communicate with a UAV, and a flight module. The flight module may be configured to receive flight data from the UAV and generate flight control instructions based at least on the flight data and data received from the MCVG sensor. The flight control instructions may be operable to pilot the UAV based on movement of the UAV flight controller in 3D space."
2023-01-03,Flight control for an unmanned aerial vehicle,"A lightweight, pocket-sized unmanned aerial vehicle (UAV) that can be held in an outstretched hand by a user for take-off and landing of the UAV. The UAV comprises a semi-toroidal or a substantially toroidal hollow body that defines a duct. The UAV further comprises a motor for rotating a fan that directs air into and out of the duct enabling UAV to take flight. The UAV comprises a flight-control system that comprises at least two flight control surfaces that can alter the directed air as it flows through the duct for controlling the roll and pitch and optionally the yaw of the UAV during flight. The flight control system may be controlled by a microprocessor controller. The UAV further comprises a payload, with at least a wireless transmitter and receiver unit."
申請日,專利名稱,摘要
2023-01-03,Method of avoiding collision of unmanned aerial vehicle,"Provided is a method of avoiding collision of an unmanned aerial vehicle with an obstacle, the method including: calculating two potential fields using ament positional information of the unmanned aerial vehicle, a target point that is set, and positional information of the obstacle measured by a sensor, computing an attractive force and a repulsive force by differentiating the computed potential fields, respectively; computing a direction of a potential force that results from adding up the computed attractive force and repulsive force; and performing control that brings about a change from the computed direction of the potential force to a direction in which the unmanned aerial vehicle moves."
2023-01-03,"Aerial launch and/or recovery for unmanned aircraft, and associated systems and methods","Aerial launch and/or recovery for unmanned aircraft, and associated systems and methods are described. A representative system includes a first, carrier aircraft having an airframe, a propulsion system carried by the airframe and positioned to support the carrier aircraft in hover, and a capture line carried by the carrier aircraft and deployable to hang from the carrier aircraft. The capture line is sized to releasably engage with a capture device of a second, carried aircraft. The system further includes a retrieval device positioned to support the carried aircraft for detachment from the capture line."
2023-01-03,"Unmanned aerial vehicle action plan creation system, method and program","Provided are an action plan making system and method for an unmanned aerial vehicle, and a storage medium. The action plan making system (1) includes: an unmanned aerial vehicle (10), provided with an aerial shooting device; and a computer (30). A control unit of the computer (30) executes a making module (324), which makes an action plan including a flight plan and a shooting plan of the unmanned aerial vehicle (10) according to a region accepted by executing a region acceptance module (322) and a purpose accepted by executing a purpose acceptance module (323). A control unit (14) of the unmanned aerial vehicle (10) executes a control module (141), and controls the aerial shooting of a camera (17) and flying of the unmanned aerial vehicle (10) based on the action plan made by executing the making module (324) by the control unit (32) of the computer (30)."
2023-01-03,Unmanned aerial vehicle and control systems and methods,"Systems and methods for an unmanned aerial vehicle (UAV) and control are provided. A UAV may include a swashplateless and hinged propulsion system, and a rotating payload system including an ISR device, a wind sensor, explosive charge and an atmospherics and/or CBRN sensor. A UAV flight controller may include a motion, compass, visual and gyroscopic (MCVG) or other gravitational forces sensor, a communications module configured to communicate with a UAV, and a flight module. The flight module may be configured to receive flight data from the UAV and generate flight control instructions based at least on the flight data and data received from the MCVG sensor. The flight control instructions may be operable to pilot the UAV based on movement of the UAV flight controller in 3D space."
申請日,專利名稱,摘要
2023-01-03,Method of avoiding collision of unmanned aerial vehicle,"Provided is a method of avoiding collision of an unmanned aerial vehicle with an obstacle, the method including: calculating two potential fields using ament positional information of the unmanned aerial vehicle, a target point that is set, and positional information of the obstacle measured by a sensor, computing an attractive force and a repulsive force by differentiating the computed potential fields, respectively; computing a direction of a potential force that results from adding up the computed attractive force and repulsive force; and performing control that brings about a change from the computed direction of the potential force to a direction in which the unmanned aerial vehicle moves."
2023-01-03,"Aerial launch and/or recovery for unmanned aircraft, and associated systems and methods","Aerial launch and/or recovery for unmanned aircraft, and associated systems and methods are described. A representative system includes a first, carrier aircraft having an airframe, a propulsion system carried by the airframe and positioned to support the carrier aircraft in hover, and a capture line carried by the carrier aircraft and deployable to hang from the carrier aircraft. The capture line is sized to releasably engage with a capture device of a second, carried aircraft. The system further includes a retrieval device positioned to support the carried aircraft for detachment from the capture line."
2023-01-03,"Unmanned aerial vehicle action plan creation system, method and program","Provided are an action plan making system and method for an unmanned aerial vehicle, and a storage medium. The action plan making system (1) includes: an unmanned aerial vehicle (10), provided with an aerial shooting device; and a computer (30). A control unit of the computer (30) executes a making module (324), which makes an action plan including a flight plan and a shooting plan of the unmanned aerial vehicle (10) according to a region accepted by executing a region acceptance module (322) and a purpose accepted by executing a purpose acceptance module (323). A control unit (14) of the unmanned aerial vehicle (10) executes a control module (141), and controls the aerial shooting of a camera (17) and flying of the unmanned aerial vehicle (10) based on the action plan made by executing the making module (324) by the control unit (32) of the computer (30)."
2023-01-03,Unmanned aerial vehicle and control systems and methods,"Systems and methods for an unmanned aerial vehicle (UAV) and control are provided. A UAV may include a swashplateless and hinged propulsion system, and a rotating payload system including an ISR device, a wind sensor, explosive charge and an atmospherics and/or CBRN sensor. A UAV flight controller may include a motion, compass, visual and gyroscopic (MCVG) or other gravitational forces sensor, a communications module configured to communicate with a UAV, and a flight module. The flight module may be configured to receive flight data from the UAV and generate flight control instructions based at least on the flight data and data received from the MCVG sensor. The flight control instructions may be operable to pilot the UAV based on movement of the UAV flight controller in 3D space."
2023-01-03,Flight control for an unmanned aerial vehicle,"A lightweight, pocket-sized unmanned aerial vehicle (UAV) that can be held in an outstretched hand by a user for take-off and landing of the UAV. The UAV comprises a semi-toroidal or a substantially toroidal hollow body that defines a duct. The UAV further comprises a motor for rotating a fan that directs air into and out of the duct enabling UAV to take flight. The UAV comprises a flight-control system that comprises at least two flight control surfaces that can alter the directed air as it flows through the duct for controlling the roll and pitch and optionally the yaw of the UAV during flight. The flight control system may be controlled by a microprocessor controller. The UAV further comprises a payload, with at least a wireless transmitter and receiver unit."
申請日,專利名稱,摘要
2023-01-03,Unmanned aerial vehicle,"An example unmanned aerial vehicle includes a housing; a wireless communication module; a plurality of propulsion systems; and a navigation circuit. At least one of the plurality of propulsion systems includes a motor; and a propeller assembly rotatably connected to the motor. The propeller assembly comprises: a hub structure including a surface facing away from the motor; a first connecting member including a first post and a second post extending in parallel to and spaced apart from the first post, and the first post and the second post are fixed to the surface and are able to move elastically in a second direction perpendicular to the first direction; a first blade detachably coupled to the first connecting member and comprising an opening to which the first post and the second post are coupled; and a cap detachably coupled to the top of the first connecting member."
2023-01-03,Method of avoiding collision of unmanned aerial vehicle,"Provided is a method of avoiding collision of an unmanned aerial vehicle with an obstacle, the method including: calculating two potential fields using ament positional information of the unmanned aerial vehicle, a target point that is set, and positional information of the obstacle measured by a sensor, computing an attractive force and a repulsive force by differentiating the computed potential fields, respectively; computing a direction of a potential force that results from adding up the computed attractive force and repulsive force; and performing control that brings about a change from the computed direction of the potential force to a direction in which the unmanned aerial vehicle moves."
2023-01-03,"Aerial launch and/or recovery for unmanned aircraft, and associated systems and methods","Aerial launch and/or recovery for unmanned aircraft, and associated systems and methods are described. A representative system includes a first, carrier aircraft having an airframe, a propulsion system carried by the airframe and positioned to support the carrier aircraft in hover, and a capture line carried by the carrier aircraft and deployable to hang from the carrier aircraft. The capture line is sized to releasably engage with a capture device of a second, carried aircraft. The system further includes a retrieval device positioned to support the carried aircraft for detachment from the capture line."
2023-01-03,"Unmanned aerial vehicle action plan creation system, method and program","Provided are an action plan making system and method for an unmanned aerial vehicle, and a storage medium. The action plan making system (1) includes: an unmanned aerial vehicle (10), provided with an aerial shooting device; and a computer (30). A control unit of the computer (30) executes a making module (324), which makes an action plan including a flight plan and a shooting plan of the unmanned aerial vehicle (10) according to a region accepted by executing a region acceptance module (322) and a purpose accepted by executing a purpose acceptance module (323). A control unit (14) of the unmanned aerial vehicle (10) executes a control module (141), and controls the aerial shooting of a camera (17) and flying of the unmanned aerial vehicle (10) based on the action plan made by executing the making module (324) by the control unit (32) of the computer (30)."
2023-01-03,Unmanned aerial vehicle and control systems and methods,"Systems and methods for an unmanned aerial vehicle (UAV) and control are provided. A UAV may include a swashplateless and hinged propulsion system, and a rotating payload system including an ISR device, a wind sensor, explosive charge and an atmospherics and/or CBRN sensor. A UAV flight controller may include a motion, compass, visual and gyroscopic (MCVG) or other gravitational forces sensor, a communications module configured to communicate with a UAV, and a flight module. The flight module may be configured to receive flight data from the UAV and generate flight control instructions based at least on the flight data and data received from the MCVG sensor. The flight control instructions may be operable to pilot the UAV based on movement of the UAV flight controller in 3D space."
